<?xml version="1.0" encoding="UTF-8" standalone="no"?>
<svg
   xmlns:dc="http://purl.org/dc/elements/1.1/"
   xmlns:cc="http://creativecommons.org/ns#"
   xmlns:rdf="http://www.w3.org/1999/02/22-rdf-syntax-ns#"
   xmlns:svg="http://www.w3.org/2000/svg"
   xmlns="http://www.w3.org/2000/svg"
   xmlns:sodipodi="http://sodipodi.sourceforge.net/DTD/sodipodi-0.dtd"
   xmlns:inkscape="http://www.inkscape.org/namespaces/inkscape"
   inkscape:version="1.0beta1 (32d4812, 2019-09-19)"
   sodipodi:docname="stats.svg"
   viewBox="0 0 266.66666 266.66666"
   height="266.66666"
   width="266.66666"
   xml:space="preserve"
   id="svg10"
   version="1.1">
  <metadata
     id="metadata16">
    <rdf:RDF>
      <cc:Work
         rdf:about="">
        <dc:format>image/svg+xml</dc:format>
        <dc:type
           rdf:resource="http://purl.org/dc/dcmitype/StillImage" />
        <dc:title></dc:title>
      </cc:Work>
    </rdf:RDF>
  </metadata>
  <defs
     id="defs14">
    <clipPath
       id="clipPath28"
       clipPathUnits="userSpaceOnUse">
      <path
         inkscape:connector-curvature="0"
         id="path26"
         d="M 0,0 H 200 V 200 H 0 Z" />
    </clipPath>
  </defs>
  <sodipodi:namedview
     inkscape:current-layer="svg10"
     inkscape:window-maximized="0"
     inkscape:window-y="23"
     inkscape:window-x="0"
     inkscape:cy="560"
     inkscape:cx="400"
     inkscape:zoom="0.35"
     showgrid="false"
     id="namedview12"
     inkscape:window-height="855"
     inkscape:window-width="1440"
     inkscape:pageshadow="2"
     inkscape:pageopacity="0"
     guidetolerance="10"
     gridtolerance="10"
     objecttolerance="10"
     borderopacity="1"
     inkscape:document-rotation="0"
     bordercolor="#666666"
     pagecolor="#ffffff" />
  <g
     transform="matrix(1.3333333,0,0,-1.3333333,0,266.66667)"
     inkscape:label="LaRacineIcons"
     inkscape:groupmode="layer"
     id="g18">
    <g
       id="g20" />
    <g
       id="g22">
      <g
         clip-path="url(#clipPath28)"
         id="g24">
        <path
           inkscape:connector-curvature="0"
           id="path30"
           style="fill:#ffffff;fill-opacity:1;fill-rule:nonzero;stroke:none"
           d="M 0,200 H 200 V 0 H 0 Z" />
        <path
           inkscape:connector-curvature="0"
           id="path32"
           style="fill:#000000;fill-opacity:1;fill-rule:nonzero;stroke:none"
           d="m 199.0623,177.306 c -0.2119,0.0568 -0.4365,0.0541 -0.6674,-0.0181 l -28.9859,-8.8382 c -0.9812,-0.2886 -1.2552,-1.4899 -0.505,-2.1825 l 5.0143,-4.6897 c 0.5195,-0.5195 0.5736,-1.3205 0.0542,-1.8398 l -51.4784,-55.122 c -0.5195,-0.5194 -1.3926,-0.5772 -1.912,0 l -36.59762,37.4094 c -0.51947,0.5194 -1.37452,0.5195 -1.89392,0 L 0.3636468,54.39996 c -0.5194702,-0.51947 -0.4654728,-1.3204 0.0541118,-1.8398 L 8.732945,44.82217 c 0.51947,-0.51947 1.320455,-0.46554 1.839805,0.05411 l 71.7523,76.82072 c 0.51947,0.5195 1.37451,0.5773 1.89391,0 L 120.997,84.1254 c 0.5194,-0.57719 1.4322,-0.5231 1.8939,0.05411 l 4.2207,4.96025 56.9617,61.02014 c 0.5195,0.5194 1.3385,0.5736 1.8579,0.0541 l 5.0143,-4.6717 c 0.7504,-0.6926 1.9699,-0.35 2.2006,0.6313 l 6.8,29.491 c 0.2165,0.7792 -0.248,1.4709 -0.8838,1.6414 z m -11.1651,-38.5276 c -0.2651,-0.0497 -0.5266,-0.1804 -0.7575,-0.3969 l -21.5365,-23.0336 -4.7258,-5.5374 c -0.1732,-0.2309 -0.2886,-0.5772 -0.2886,-0.8658 V 23.9891 c 0,-0.75032 0.5663,-1.33475 1.3167,-1.33475 h 26.2623 c 0.7503,-4e-5 1.3348,0.58437 1.3348,1.33475 v 113.5266 c 0,0.8658 -0.8099,1.4115 -1.6054,1.2627 z M 85.08475,108.9627 c -0.74675,0.1245 -1.5512,-0.4148 -1.5512,-1.2806 v -83.693 c 10e-6,-0.75032 0.5663,-1.33475 1.31672,-1.33475 h 26.26223 c 0.7504,-4e-5 1.3348,0.58434 1.3348,1.33475 v 56.85351 c 0,0.34631 -0.1082,0.63131 -0.3968,0.9199 L 85.78821,108.602 c -0.20202,0.202 -0.45455,0.3192 -0.70346,0.3607 z m 64.24875,-7.9183 c -0.2651,-0.0415 -0.5266,-0.1588 -0.7575,-0.3608 l -21.5185,-23.01555 -4.7438,-5.55548 c -0.1732,-0.23091 -0.2886,-0.57719 -0.2886,-0.86579 V 23.9891 c 0,-0.75032 0.5844,-1.33475 1.3348,-1.33475 h 26.2622 c 0.7504,-4e-5 1.3168,0.58436 1.3168,1.33475 v 75.77462 c -1e-4,0.86578 -0.8099,1.40508 -1.6054,1.28068 z M 72.35043,99.11438 C 72.09611,99.06477 71.84875,98.95204 71.64698,98.73559 L 45.3847,70.61548 C 45.15383,70.38457 45.02395,70.09587 45.02395,69.74969 V 23.9891 c 0,-0.75032 0.58442,-1.33475 1.33476,-1.33475 h 26.26228 c 0.75033,-4e-5 1.33476,0.58429 1.33476,1.33475 v 73.8807 c 0,0.86579 -0.84212,1.39338 -1.60532,1.24458 z M 34.12944,59.17984 C 33.87512,59.13114 33.628,58.99956 33.42598,58.78302 L 7.163701,30.68094 C 6.93281,30.45003 6.820993,30.16137 6.820993,29.81515 V 23.9891 c 9e-6,-0.75032 0.584459,-1.33475 1.334759,-1.33475 H 34.41803 c 0.75036,-4e-5 1.31672,0.5843 1.31672,1.33475 v 33.87402 c 0,0.90907 -0.84234,1.46283 -1.60531,1.31672 z" />
      </g>
    </g>
  </g>
</svg>
